%YAML 1.1
%TAG !u! tag:unity3d.com,2011:
--- !u!21 &2100000
Material:
  serializedVersion: 6
  m_ObjectHideFlags: 0
  m_PrefabParentObject: {fileID: 0}
  m_PrefabInternal: {fileID: 0}
  m_Name: last_carpet
  m_Shader: {fileID: 4800000, guid: 06c38ff47a3e0e042ade90f38cb14a31, type: 3}
  m_ShaderKeywords: _NORMALMAP
  m_LightmapFlags: 4
  m_EnableInstancingVariants: 0
  m_DoubleSidedGI: 0
  m_CustomRenderQueue: -1
  stringTagMap: {}
  disabledShaderPasses: []
  m_SavedProperties:
    serializedVersion: 3
    m_TexEnvs:
    - _BumpMap:
        m_Texture: {fileID: 2800000, guid: 8dad0b1986c4dc142aa0bc989fea2de1, type: 3}
        m_Scale: {x: 1, y: 1}
        m_Offset: {x: 0, y: 0}
    - _Bumpmap:
        m_Texture: {fileID: 2800000, guid: 8dad0b1986c4dc142aa0bc989fea2de1, type: 3}
        m_Scale: {x: 1, y: 1}
        m_Offset: {x: 0, y: 0}
    - _Bumpmap2:
        m_Texture: {fileID: 0}
        m_Scale: {x: 1, y: 1}
        m_Offset: {x: 0, y: 0}
    - _DetailAlbedoMap:
        m_Texture: {fileID: 0}
        m_Scale: {x: 1, y: 1}
        m_Offset: {x: 0, y: 0}
    - _DetailMask:
        m_Texture: {fileID: 0}
        m_Scale: {x: 1, y: 1}
        m_Offset: {x: 0, y: 0}
    - _DetailNormalMap:
        m_Texture: {fileID: 0}
        m_Scale: {x: 1, y: 1}
        m_Offset: {x: 0, y: 0}
    - _EmissionMap:
        m_Texture: {fileID: 0}
        m_Scale: {x: 0.98, y: 1}
        m_Offset: {x: 0.01, y: 0}
    - _Glossinessmap:
        m_Texture: {fileID: 2800000, guid: d616edf71794cd346b8fddd28ae4e2b1, type: 3}
        m_Scale: {x: 1, y: 1}
        m_Offset: {x: 0, y: 0}
    - _Glossinessmap2:
        m_Texture: {fileID: 2800000, guid: b6620842899e5714eb658e04a21e0937, type: 3}
        m_Scale: {x: 1, y: 1}
        m_Offset: {x: -0.14, y: 0.11}
    - _MainTex:
        m_Texture: {fileID: 2800000, guid: 33e31596968837f4a829823299f43579, type: 3}
        m_Scale: {x: 1, y: 1}
        m_Offset: {x: 0, y: 0}
    - _MainTex2:
        m_Texture: {fileID: 2800000, guid: b6620842899e5714eb658e04a21e0937, type: 3}
        m_Scale: {x: 1, y: 1}
        m_Offset: {x: -0.14, y: 0.11}
    - _MainTex3:
        m_Texture: {fileID: 2800000, guid: b6620842899e5714eb658e04a21e0937, type: 3}
        m_Scale: {x: 1, y: 1}
        m_Offset: {x: -0.14, y: 0.11}
    - _MaskTex:
        m_Texture: {fileID: 0}
        m_Scale: {x: 1, y: 1}
        m_Offset: {x: 0, y: 0}
    - _MetallicGlossMap:
        m_Texture: {fileID: 0}
        m_Scale: {x: 1, y: 1}
        m_Offset: {x: 0, y: 0}
    - _MetallicGlossmap:
        m_Texture: {fileID: 2800000, guid: e6bcb9a2ceb99334d9a452e09d016bb5, type: 3}
        m_Scale: {x: 1, y: 1}
        m_Offset: {x: 0, y: 0}
    - _OcclusionMap:
        m_Texture: {fileID: 2800000, guid: 812b76326a483c245b4b9353deeb2b0c, type: 3}
        m_Scale: {x: 1, y: 1}
        m_Offset: {x: 0, y: 0}
    - _ParallaxMap:
        m_Texture: {fileID: 0}
        m_Scale: {x: 1, y: 1}
        m_Offset: {x: 0, y: 0}
    - _Stain:
        m_Texture: {fileID: 0}
        m_Scale: {x: 1, y: 1}
        m_Offset: {x: 0, y: 0}
    m_Floats:
    - _Blood: 1
    - _Bloodfloat: 0.5
    - _BumpScale: 1
    - _Bumppower: 3
    - _Bumppower2: 3
    - _Bumppower3: 1
    - _Cutoff: 0.5
    - _DetailNormalMapScale: 1
    - _DstBlend: 0
    - _GlossMapScale: 1
    - _Glossiness: 0.092
    - _Glossiness2: 0.138
    - _GlossyReflections: 1
    - _Ifem: 0
    - _Lerppower: 0.5
    - _Metallic: 0.607
    - _Mode: 0
    - _NM: 1
    - _NMfloat: 1
    - _OcclusionStrength: 1
    - _Parallax: 0.02
    - _SmoothnessTextureChannel: 0
    - _SpecularHighlights: 1
    - _SrcBlend: 1
    - _UVSec: 0
    - _ZWrite: 1
    m_Colors:
    - _Color: {r: 1, g: 1, b: 1, a: 1}
    - _EmColor: {r: 0, g: 1.5, b: 2, a: 1}
    - _EmissionColor: {r: 0, g: 0, b: 0, a: 1}
