%YAML 1.1
%TAG !u! tag:unity3d.com,2011:
--- !u!74 &7400000
AnimationClip:
  m_ObjectHideFlags: 0
  m_PrefabParentObject: {fileID: 0}
  m_PrefabInternal: {fileID: 0}
  m_Name: fireanim
  serializedVersion: 6
  m_Legacy: 0
  m_Compressed: 0
  m_UseHighQualityCurve: 1
  m_RotationCurves: []
  m_CompressedRotationCurves: []
  m_EulerCurves: []
  m_PositionCurves: []
  m_ScaleCurves: []
  m_FloatCurves:
  - curve:
      serializedVersion: 2
      m_Curve:
      - serializedVersion: 2
        time: 0
        value: 8.1
        inSlope: 0
        outSlope: 0
        tangentMode: 5
      - serializedVersion: 2
        time: 0.06666667
        value: 7.9
        inSlope: -3.000004
        outSlope: 0
        tangentMode: 5
      - serializedVersion: 2
        time: 0.13333334
        value: 8.1
        inSlope: 1.7999984
        outSlope: 1.7999984
        tangentMode: 136
      - serializedVersion: 2
        time: 0.23333333
        value: 8.2
        inSlope: 0
        outSlope: 0
        tangentMode: 136
      - serializedVersion: 2
        time: 0.31666666
        value: 7.8
        inSlope: 0
        outSlope: 0
        tangentMode: 136
      - serializedVersion: 2
        time: 0.36666667
        value: 8.1
        inSlope: 0
        outSlope: 0
        tangentMode: 136
      - serializedVersion: 2
        time: 0.41666666
        value: 7.85
        inSlope: 0
        outSlope: 0
        tangentMode: 136
      - serializedVersion: 2
        time: 0.48333332
        value: 8.1
        inSlope: 2.3333325
        outSlope: 2.3333325
        tangentMode: 136
      - serializedVersion: 2
        time: 0.56666666
        value: 8.2
        inSlope: 0
        outSlope: 0
        tangentMode: 136
      - serializedVersion: 2
        time: 0.65
        value: 7.77
        inSlope: 0
        outSlope: 0
        tangentMode: 136
      - serializedVersion: 2
        time: 0.75
        value: 8
        inSlope: 1.3200016
        outSlope: 1.3200016
        tangentMode: 136
      - serializedVersion: 2
        time: 0.9
        value: 8.1
        inSlope: 0
        outSlope: 0
        tangentMode: 136
      - serializedVersion: 2
        time: 1
        value: 8.1
        inSlope: 0
        outSlope: 0
        tangentMode: 136
      - serializedVersion: 2
        time: 1.0666667
        value: 7.81
        inSlope: 0
        outSlope: 0
        tangentMode: 136
      - serializedVersion: 2
        time: 1.15
        value: 8.1
        inSlope: 3.4800086
        outSlope: 0
        tangentMode: 5
      - serializedVersion: 2
        time: 1.1833333
        value: 8.1
        inSlope: -0
        outSlope: 0
        tangentMode: 5
      - serializedVersion: 2
        time: 1.2666667
        value: 7.95
        inSlope: 0
        outSlope: 0
        tangentMode: 1
      - serializedVersion: 2
        time: 1.3666667
        value: 8.1
        inSlope: 0
        outSlope: 0
        tangentMode: 1
      m_PreInfinity: 2
      m_PostInfinity: 2
      m_RotationOrder: 4
    attribute: m_Intensity
    path: firepoint
    classID: 108
    script: {fileID: 0}
  m_PPtrCurves: []
  m_SampleRate: 60
  m_WrapMode: 0
  m_Bounds:
    m_Center: {x: 0, y: 0, z: 0}
    m_Extent: {x: 0, y: 0, z: 0}
  m_ClipBindingConstant:
    genericBindings:
    - serializedVersion: 2
      path: 1419578562
      attribute: 898800009
      script: {fileID: 0}
      typeID: 108
      customType: 25
      isPPtrCurve: 0
    pptrCurveMapping: []
  m_AnimationClipSettings:
    serializedVersion: 2
    m_AdditiveReferencePoseClip: {fileID: 0}
    m_AdditiveReferencePoseTime: 0
    m_StartTime: 0
    m_StopTime: 1.3666667
    m_OrientationOffsetY: 0
    m_Level: 0
    m_CycleOffset: 0
    m_HasAdditiveReferencePose: 0
    m_LoopTime: 1
    m_LoopBlend: 0
    m_LoopBlendOrientation: 0
    m_LoopBlendPositionY: 0
    m_LoopBlendPositionXZ: 0
    m_KeepOriginalOrientation: 0
    m_KeepOriginalPositionY: 1
    m_KeepOriginalPositionXZ: 0
    m_HeightFromFeet: 0
    m_Mirror: 0
  m_EditorCurves:
  - curve:
      serializedVersion: 2
      m_Curve:
      - serializedVersion: 2
        time: 0
        value: 8.1
        inSlope: 0
        outSlope: 0
        tangentMode: 5
      - serializedVersion: 2
        time: 0.06666667
        value: 7.9
        inSlope: -3.000004
        outSlope: 0
        tangentMode: 5
      - serializedVersion: 2
        time: 0.13333334
        value: 8.1
        inSlope: 1.7999984
        outSlope: 1.7999984
        tangentMode: 136
      - serializedVersion: 2
        time: 0.23333333
        value: 8.2
        inSlope: 0
        outSlope: 0
        tangentMode: 136
      - serializedVersion: 2
        time: 0.31666666
        value: 7.8
        inSlope: 0
        outSlope: 0
        tangentMode: 136
      - serializedVersion: 2
        time: 0.36666667
        value: 8.1
        inSlope: 0
        outSlope: 0
        tangentMode: 136
      - serializedVersion: 2
        time: 0.41666666
        value: 7.85
        inSlope: 0
        outSlope: 0
        tangentMode: 136
      - serializedVersion: 2
        time: 0.48333332
        value: 8.1
        inSlope: 2.3333325
        outSlope: 2.3333325
        tangentMode: 136
      - serializedVersion: 2
        time: 0.56666666
        value: 8.2
        inSlope: 0
        outSlope: 0
        tangentMode: 136
      - serializedVersion: 2
        time: 0.65
        value: 7.77
        inSlope: 0
        outSlope: 0
        tangentMode: 136
      - serializedVersion: 2
        time: 0.75
        value: 8
        inSlope: 1.3200016
        outSlope: 1.3200016
        tangentMode: 136
      - serializedVersion: 2
        time: 0.9
        value: 8.1
        inSlope: 0
        outSlope: 0
        tangentMode: 136
      - serializedVersion: 2
        time: 1
        value: 8.1
        inSlope: 0
        outSlope: 0
        tangentMode: 136
      - serializedVersion: 2
        time: 1.0666667
        value: 7.81
        inSlope: 0
        outSlope: 0
        tangentMode: 136
      - serializedVersion: 2
        time: 1.15
        value: 8.1
        inSlope: 3.4800086
        outSlope: 0
        tangentMode: 5
      - serializedVersion: 2
        time: 1.1833333
        value: 8.1
        inSlope: -0
        outSlope: 0
        tangentMode: 5
      - serializedVersion: 2
        time: 1.2666667
        value: 7.95
        inSlope: 0
        outSlope: 0
        tangentMode: 1
      - serializedVersion: 2
        time: 1.3666667
        value: 8.1
        inSlope: 0
        outSlope: 0
        tangentMode: 1
      m_PreInfinity: 2
      m_PostInfinity: 2
      m_RotationOrder: 4
    attribute: m_Intensity
    path: firepoint
    classID: 108
    script: {fileID: 0}
  m_EulerEditorCurves: []
  m_HasGenericRootTransform: 0
  m_HasMotionFloatCurves: 0
  m_GenerateMotionCurves: 0
  m_Events: []
