%YAML 1.1
%TAG !u! tag:unity3d.com,2011:
--- !u!1045 &1
EditorBuildSettings:
  m_ObjectHideFlags: 0
  serializedVersion: 2
  m_Scenes:
  - enabled: 0
    path: 
    guid: 5cca3dfcfdafa1247ab09ab628d7cd7a
  - enabled: 1
    path: Assets/Scene/Tu_Library.unity
    guid: 98fe6829c696b864481f0d49af5680f7
  - enabled: 1
    path: Assets/Scene/P_Room.unity
    guid: be242e7704a5a6449a35b14a649a64ff
  - enabled: 1
    path: Assets/Scene/Street.unity
    guid: ea5570aa8b031cd4f81fa219b8790286
  - enabled: 1
    path: Assets/Scene/Doc_Room.unity
    guid: 500b1e85b0420c1498f8c0d163063bc1
  - enabled: 1
    path: Assets/Scene/Doc_Room_night.unity
    guid: 346ac5989a422b74f979beaf2e7fbf8b
  - enabled: 1
    path: Assets/Scene/Modo_Night.unity
    guid: e32a46976ba485645913f7fd6d15b79e
  - enabled: 0
    path: Assets/Scene/LibraryIntro.unity
    guid: fe789f815a76bfd4b8f43068219e4af3
  - enabled: 0
    path: 
    guid: 4206db1f035ba5a4780cd3c7fdd4b21b
  - enabled: 0
    path: 
    guid: 0a04d3708238bc04ba78908ea56151e8
  - enabled: 0
    path: Assets/BackGround/BG_Library/Street/Outside.unity
    guid: de4fc19ff42894c4090df9e33e15b62c
  - enabled: 0
    path: 
    guid: 2bac2987ba259d74cb92c29273b5fe5d
  - enabled: 0
    path: 
    guid: c26a1059b3c33a64ab9884fa0f7578bc
  - enabled: 0
    path: 
    guid: fc6f7798619404245af86a0a182f08de
  - enabled: 0
    path: 
    guid: fd4bc9d57e8fd034aa21362675ef2993
  - enabled: 0
    path: Assets/Scene/SecretRoom.unity
    guid: 6f2d9420a5d82094798fcccef9143264
  - enabled: 0
    path: 
    guid: 45cee7a8a874de74e8841b502eaebe00
  - enabled: 0
    path: 
    guid: 075b36f5f972c5349adb4a6c2a5e0b5a
  - enabled: 0
    path: 
    guid: 5ce8435299722494db25870ce14ce126
  - enabled: 0
    path: 
    guid: 9e260ee930f8e3347b72431f086c6fcb
  - enabled: 0
    path: 
    guid: 329cead1085badf41b997465df65a219
  - enabled: 0
    path: 
    guid: 8b71b18f25149ee4e8792268f76eecc9
  - enabled: 0
    path: 
    guid: 98ab565963b213f4383119376b44eb0c
