%YAML 1.1
%TAG !u! tag:unity3d.com,2011:
--- !u!21 &2100000
Material:
  serializedVersion: 6
  m_ObjectHideFlags: 0
  m_PrefabParentObject: {fileID: 0}
  m_PrefabInternal: {fileID: 0}
  m_Name: work_floor
  m_Shader: {fileID: 4800000, guid: 4b4dcdb6054032749befbfa62fec1a81, type: 3}
  m_ShaderKeywords: _METALLICGLOSSMAP _NORMALMAP
  m_LightmapFlags: 4
  m_EnableInstancingVariants: 0
  m_DoubleSidedGI: 0
  m_CustomRenderQueue: -1
  stringTagMap: {}
  disabledShaderPasses: []
  m_SavedProperties:
    serializedVersion: 3
    m_TexEnvs:
    - _BumpMap:
        m_Texture: {fileID: 2800000, guid: 48dc9363346cb7d41b7db77bf7b5e6fa, type: 3}
        m_Scale: {x: 1, y: 1}
        m_Offset: {x: 0, y: 0}
    - _Bumpmap:
        m_Texture: {fileID: 2800000, guid: 48dc9363346cb7d41b7db77bf7b5e6fa, type: 3}
        m_Scale: {x: 5.5, y: 5}
        m_Offset: {x: 0, y: 0}
    - _DetailAlbedoMap:
        m_Texture: {fileID: 0}
        m_Scale: {x: 1, y: 1}
        m_Offset: {x: 0, y: 0}
    - _DetailMask:
        m_Texture: {fileID: 0}
        m_Scale: {x: 1, y: 1}
        m_Offset: {x: 0, y: 0}
    - _DetailNormalMap:
        m_Texture: {fileID: 0}
        m_Scale: {x: 1, y: 1}
        m_Offset: {x: 0, y: 0}
    - _EmissionMap:
        m_Texture: {fileID: 0}
        m_Scale: {x: 5, y: 5}
        m_Offset: {x: 0, y: 0}
    - _Glossinessmap:
        m_Texture: {fileID: 2800000, guid: 62f7704edc3af63448948ffb49120f17, type: 3}
        m_Scale: {x: 5, y: 5}
        m_Offset: {x: 0, y: 0}
    - _Glossinessmap2:
        m_Texture: {fileID: 2800000, guid: cd7b10c7b8646b3468658cd06542f4fa, type: 3}
        m_Scale: {x: 5.5, y: 5}
        m_Offset: {x: 0, y: 0}
    - _MainTex:
        m_Texture: {fileID: 2800000, guid: 242607115422d114bbf8a15ec5f0f93b, type: 3}
        m_Scale: {x: 5.5, y: 5}
        m_Offset: {x: 0, y: 0}
    - _MainTex2:
        m_Texture: {fileID: 2800000, guid: 1e53af5963168e7469c1e21bfed0b9d8, type: 3}
        m_Scale: {x: 1, y: 1}
        m_Offset: {x: 0.24, y: 0}
    - _MainTex3:
        m_Texture: {fileID: 2800000, guid: a007827ff560fb44fa1dfab20158340a, type: 3}
        m_Scale: {x: 5.5, y: 5}
        m_Offset: {x: 0, y: 0}
    - _MaskMap:
        m_Texture: {fileID: 2800000, guid: 3e7027f73ff9c5349822b4c5d8f0f6b5, type: 3}
        m_Scale: {x: 0.77, y: 1.51}
        m_Offset: {x: 0.32, y: -1.29}
    - _MetallicGlossMap:
        m_Texture: {fileID: 2800000, guid: 20a47e3ec095663458ba37885708e82a, type: 3}
        m_Scale: {x: 1, y: 1}
        m_Offset: {x: 0, y: 0}
    - _MetallicGlossmap:
        m_Texture: {fileID: 0}
        m_Scale: {x: 5.5, y: 5}
        m_Offset: {x: 0, y: 0}
    - _OcclusionMap:
        m_Texture: {fileID: 2800000, guid: 19af648113de9dd40ba7720df66788f7, type: 3}
        m_Scale: {x: 5.5, y: 5}
        m_Offset: {x: 0, y: 0}
    - _ParallaxMap:
        m_Texture: {fileID: 0}
        m_Scale: {x: 1, y: 1}
        m_Offset: {x: 0, y: 0}
    m_Floats:
    - _Blood: 1
    - _Bloodfloat: 0
    - _BumpScale: 1
    - _Cutoff: 0.5
    - _DetailNormalMapScale: 1
    - _DstBlend: 0
    - _GlossMapScale: 0.317
    - _Glossiness: 0.972
    - _Glossiness2: 1
    - _GlossyReflections: 1
    - _Metallic: 1
    - _Mode: 0
    - _NMfloat: 1
    - _OcclusionStrength: 1
    - _Parallax: 0.02
    - _SmoothnessTextureChannel: 0
    - _SpecularHighlights: 1
    - _SrcBlend: 1
    - _UVSec: 0
    - _ZWrite: 1
    m_Colors:
    - _Color: {r: 1, g: 1, b: 1, a: 1}
    - _EmissionColor: {r: 0, g: 0, b: 0, a: 1}
